Survival analysis with tidymodels - 4 - Evaluating models
…
Area Under the ROC Curve

This is more straightforward.

We can use the standard ROC curve machinery once we have the indicators, probabilities, and censoring weights at time \(\tau\) (Hung and Chiang (2010)).

ROC curves measure the separation between events and non-events and are ignorant of how well-calibrated the probabilities are.

Demonstration Cat ROC AUC

demo_row_auc <- roc_auc_survival(demo_cat_preds, truth = event_time, .pred)
demo_row_auc
#> # A tibble: 313 × 4
#>    .metric          .estimator .eval_time .estimate
#>    <chr>            <chr>           <dbl>     <dbl>
#>  1 roc_auc_survival standard            8     0.596
#>  2 roc_auc_survival standard            9     0.566
#>  3 roc_auc_survival standard           10     0.487
#>  4 roc_auc_survival standard           11     0.483
#>  5 roc_auc_survival standard           12     0.571
#>  6 roc_auc_survival standard           13     0.574
#>  7 roc_auc_survival standard           14     0.678
#>  8 roc_auc_survival standard           15     0.739
#>  9 roc_auc_survival standard           16     0.643
#> 10 roc_auc_survival standard           17     0.630
#> # ℹ 303 more rows
…
set.seed(3214)
bootstraps(cat_train)
#> # Bootstrap sampling 
#> # A tibble: 25 × 2
#>    splits             id         
#>    <list>             <chr>      
#>  1 <split [1765/657]> Bootstrap01
#>  2 <split [1765/644]> Bootstrap02
#>  3 <split [1765/625]> Bootstrap03
#>  4 <split [1765/638]> Bootstrap04
#>  5 <split [1765/647]> Bootstrap05
#>  6 <split [1765/655]> Bootstrap06
#>  7 <split [1765/655]> Bootstrap07
#>  8 <split [1765/637]> Bootstrap08
#>  9 <split [1765/669]> Bootstrap09
#> 10 <split [1765/638]> Bootstrap10
#> # ℹ 15 more rows
…
cat_preds <- collect_predictions(cat_res)
cat_preds
#> # A tibble: 1,765 × 5
#>    .pred            id      .row event_time .config             
#>    <list>           <chr>  <int>     <Surv> <chr>               
#>  1 <tibble [4 × 3]> Fold01    17        35  Preprocessor1_Model1
#>  2 <tibble [4 × 3]> Fold01    29        60  Preprocessor1_Model1
#>  3 <tibble [4 × 3]> Fold01    51         8  Preprocessor1_Model1
#>  4 <tibble [4 × 3]> Fold01    55        39+ Preprocessor1_Model1
#>  5 <tibble [4 × 3]> Fold01    62        36+ Preprocessor1_Model1
#>  6 <tibble [4 × 3]> Fold01    63        14  Preprocessor1_Model1
#>  7 <tibble [4 × 3]> Fold01    92        14+ Preprocessor1_Model1
#>  8 <tibble [4 × 3]> Fold01    95        37  Preprocessor1_Model1
#>  9 <tibble [4 × 3]> Fold01    96        19+ Preprocessor1_Model1
#> 10 <tibble [4 × 3]> Fold01   101        83  Preprocessor1_Model1
#> # ℹ 1,755 more rows
…
