Survival analysis with tidymodels - 2 - Your data budget
…
If a cat is transfered to a different organization that works to home them, this is recorded as a non-event.

Several nominal variables like sex, intake type and condition, as well as fur color.

Two numeric variables for the location of the intake or capture, latitiude and logitude.

Data on shelter cats

library(tidymodels)
library(survival)
library(modeldata)

cat_adoption
#> # A tibble: 2,257 × 20
#>     time event sex    neutered intake_condition intake_type   latitude longitude
#>    <dbl> <dbl> <fct>  <fct>    <fct>            <fct>            <dbl>     <dbl>
#>  1    17     1 male   yes      fractious        owner_surren…     33.8     -118.
#>  2    98     1 male   yes      normal           stray             33.8     -118.
#>  3    15     0 male   yes      ill_moderatete   owner_surren…     33.8     -118.
#>  4    72     1 female yes      fractious        owner_surren…     33.8     -118.
#>  5    22     0 male   yes      normal           owner_surren…     33.8     -118.
#>  6    66     1 male   yes      normal           owner_surren…     33.8     -118.
#>  7   200     1 female yes      other            other             33.9     -118.
#>  8     9     0 female yes      normal           owner_surren…     33.9     -118.
#>  9    45     1 male   yes      ill_mild         stray             33.8     -118.
#> 10    38     1 male   no       ill_mild         stray             33.9     -118.
#> # ℹ 2,247 more rows
#> # ℹ 12 more variables: black <int>, brown <int>, brown_tabby <int>,
#> #   calico <int>, cream <int>, gray <int>, gray_tabby <int>, orange <int>,
#> #   orange_tabby <int>, tan <int>, tortie <int>, white <int>
…
cat_train
#> # A tibble: 1,692 × 19
#>    sex     neutered intake_condition  intake_type latitude longitude black brown
#>    <fct>   <fct>    <fct>             <fct>          <dbl>     <dbl> <int> <int>
#>  1 male    yes      under_age_or_wei… stray           33.8     -118.     1     0
#>  2 female  yes      normal            stray           33.8     -118.     0     1
#>  3 female  yes      feral             stray           33.9     -118.     0     0
#>  4 male    yes      other             stray           33.8     -118.     0     0
#>  5 female  yes      fractious         stray           33.8     -118.     1     0
#>  6 unknown unknown  normal            stray           33.8     -118.     0     0
#>  7 male    no       under_age_or_wei… stray           33.8     -118.     1     0
#>  8 male    yes      normal            owner_surr…     33.8     -118.     0     0
#>  9 male    no       normal            stray           33.9     -118.     1     0
#> 10 male    no       ill_mild          stray           33.8     -118.     0     0
#> # ℹ 1,682 more rows
#> # ℹ 11 more variables: brown_tabby <int>, calico <int>, cream <int>,
#> #   gray <int>, gray_tabby <int>, orange <int>, orange_tabby <int>, tan <int>,
#> #   tortie <int>, white <int>, event_time <Surv>
…
